…
``` r
anti_join(bakers_df, results_df, by = "series")
```

    ## # A tibble: 0 × 6
    ## # ℹ 6 variables: series <chr>, baker_name <chr>, baker_age <dbl>,
    ## #   baker_occupation <chr>, hometown <chr>, baker <chr>

``` r
anti_join(bakers_df, bakes_df, by = "baker")
```

    ## # A tibble: 22 × 6
    ##    series baker_name          baker_age baker_occupation          hometown baker
    ##    <chr>  <chr>                   <dbl> <chr>                     <chr>    <chr>
    ##  1 9      Antony Amourdoux           30 Banker                    London   Anto…
    ##  2 9      Briony Williams            33 Full-time parent          Bristol  Brio…
    ##  3 9      Dan Beasley-Harling        36 Full-time parent          London   Dan  
    ##  4 9      Imelda McCarron            33 Countryside recreation o… County … Imel…
    ##  5 9      Jon Jenkins                47 Blood courier             Newport  Jon  
    ##  6 9      Karen Wright               60 In-store sampling assist… Wakefie… Karen
    ##  7 9      Kim-Joy Hewlett            27 Mental health specialist  Leeds    Kim-…
    ##  8 9      Luke Thompson              30 Civil servant/house and … Sheffie… Luke 
    ##  9 9      Manon Lagrave              26 Software project manager  London   Manon
    ## 10 9      Rahul Mandal               30 Research scientist        Rotherh… Rahul
    ## # ℹ 12 more rows
…
